[gd_scene load_steps=9 format=2]

[ext_resource path="res://scripts/neural_network.gd" type="Script" id=1]
[ext_resource path="res://textures/halo_256.png" type="Texture" id=2]

[sub_resource type="ProceduralSky" id=1]

[sub_resource type="Environment" id=2]
background_mode = 3
background_sky = SubResource( 1 )
tonemap_mode = 2
tonemap_exposure = 1.5

[sub_resource type="SpatialMaterial" id=3]
flags_transparent = true
flags_unshaded = true
vertex_color_use_as_albedo = true
albedo_color = Color( 1, 1, 1, 0.392157 )

[sub_resource type="SpatialMaterial" id=6]
flags_transparent = true
flags_unshaded = true
vertex_color_use_as_albedo = true
params_depth_draw_mode = 3
params_billboard_mode = 3
particles_anim_h_frames = 1
particles_anim_v_frames = 1
particles_anim_loop = false
albedo_color = Color( 1, 1, 1, 0.00784314 )
albedo_texture = ExtResource( 2 )

[sub_resource type="QuadMesh" id=4]
size = Vector2( 3, 3 )

[sub_resource type="MultiMesh" id=5]
color_format = 2
transform_format = 1
instance_count = 448
visible_instance_count = 448
mesh = SubResource( 4 )
transform_array = PoolVector3Array( 0.489409, 0, 0, 0, 0.489409, 0, 0, 0, 0.489409, 0.0428135, -3.86182, -0.140711, 0.489409, 0, 0, 0, 0.489409, 0, 0, 0, 0.489409, -0.157782, -3.87825, -0.0342732, 0.489409, 0, 0, 0, 0.489409, 0, 0, 0, 0.489409, 0.046672, -3.85857, -0.126073, 0.489409, 0, 0, 0, 0.489409, 0, 0, 0, 0.489409, -0.0671386, -3.87285, 0.0459277, 0.489409, 0, 0, 0, 0.489409, 0, 0, 0, 0.489409, -0.245073, -3.8626, 0.0377306, 0.489409, 0, 0, 0, 0.489409, 0, 0, 0, 0.489409, -0.41678, -3.82427, 0.0639846, 0.489409, 0, 0, 0, 0.489409, 0, 0, 0, 0.489409, -0.0868674, -3.84308, -0.23229, 0.489409, 0, 0, 0, 0.489409, 0, 0, 0, 0.489409, 0.0280084, -3.81375, -0.339155, 0.489409, 0, 0, 0, 0.489409, 0, 0, 0, 0.489409, 0.151586, -3.84012, -0.212914, 0.489409, 0, 0, 0, 0.489409, 0, 0, 0, 0.489409, -0.272881, -3.84808, 0.116761, 0.489409, 0, 0, 0, 0.489409, 0, 0, 0, 0.489409, -0.0455522, -3.87078, 0.207659, 0.489409, 0, 0, 0, 0.489409, 0, 0, 0, 0.489409, -0.145845, -3.85694, 0.237388, 0.489409, 0, 0, 0, 0.489409, 0, 0, 0, 0.489409, -0.260268, -3.84782, 0.0280631, 0.489409, 0, 0, 0, 0.489409, 0, 0, 0, 0.489409, -0.213779, -3.8654, -0.0151708, 0.489409, 0, 0, 0, 0.489409, 0, 0, 0, 0.489409, -0.486332, -3.77446, -0.209725, 0.489409, 0, 0, 0, 0.489409, 0, 0, 0, 0.489409, -0.28646, -3.80588, -0.356632, 0.489409, 0, 0, 0, 0.489409, 0, 0, 0, 0.489409, -0.295375, -3.82675, -0.263874, 0.489409, 0, 0, 0, 0.489409, 0, 0, 0, 0.489409, -0.167367, -3.85923, -0.182788, 0.489409, 0, 0, 0, 0.489409, 0, 0, 0, 0.489409, -0.182088, -3.72957, 0.867233, 0.489409, 0, 0, 0, 0.489409, 0, 0, 0, 0.489409, -0.15382, -3.69497, 0.950469, 0.489409, 0, 0, 0, 0.489409, 0, 0, 0, 0.489409, 0.0124017, -3.72169, 0.854675, 0.489409, 0, 0, 0, 0.489409, 0, 0, 0, 0.489409, -0.281681, -3.60144, 1.09076, 0.489409, 0, 0, 0, 0.489409, 0, 0, 0, 0.489409, -0.0537699, -3.6612, 1.0059, 0.489409, 0, 0, 0, 0.489409, 0, 0, 0, 0.489409, -0.261391, -3.65154, 1.01152, 0.489409, 0, 0, 0, 0.489409, 0, 0, 0, 0.489409, -0.588267, -3.67543, 0.685834, 0.489409, 0, 0, 0, 0.489409, 0, 0, 0, 0.489409, -0.109281, -3.72993, 0.82061, 0.489409, 0, 0, 0, 0.489409, 0, 0, 0, 0.489409, -0.616431, -3.58049, 0.929717, 0.489409, 0, 0, 0, 0.489409, 0, 0, 0, 0.489409, -0.510507, -3.61733, 0.976538, 0.489409, 0, 0, 0, 0.489409, 0, 0, 0, 0.489409, -0.554033, -3.57795, 1.00085, 0.489409, 0, 0, 0, 0.489409, 0, 0, 0, 0.489409, 0.472737, -3.81044, -0.0553167, 0.489409, 0, 0, 0, 0.489409, 0, 0, 0, 0.489409, 0.47984, -3.8044, -0.00558066, 0.489409, 0, 0, 0, 0.489409, 0, 0, 0, 0.489409, 0.36063, -3.8306, 0.0387804, 0.489409, 0, 0, 0, 0.489409, 0, 0, 0, 0.489409, 0.41728, -3.82875, -0.0477758, 0.489409, 0, 0, 0, 0.489409, 0, 0, 0, 0.489409, 0.419208, -3.81332, 0.0727607, 0.489409, 0, 0, 0, 0.489409, 0, 0, 0, 0.489409, 0.276888, -3.84718, -0.0125781, 0.489409, 0, 0, 0, 0.489409, 0, 0, 0, 0.489409, 0.493472, -3.80028, 0.100035, 0.489409, 0, 0, 0, 0.489409, 0, 0, 0, 0.489409, 0.652055, -3.72624, 0.159019, 0.489409, 0, 0, 0, 0.489409, 0, 0, 0, 0.489409, 0.57455, -3.76816, -0.0487672, 0.489409, 0, 0, 0, 0.489409, 0, 0, 0, 0.489409, 0.452997, -3.79238, -0.0249493, 0.489409, 0, 0, 0, 0.489409, 0, 0, 0, 0.489409, 0.528818, -3.70752, 0.469157, 0.489409, 0, 0, 0, 0.489409, 0, 0, 0, 0.489409, 0.405978, -3.6833, 0.601653, 0.489409, 0, 0, 0, 0.489409, 0, 0, 0, 0.489409, 0.397369, -3.81588, -0.0295691, 0.489409, 0, 0, 0, 0.489409, 0, 0, 0, 0.489409, 0.505528, -3.78317, 0.149418, 0.489409, 0, 0, 0, 0.489409, 0, 0, 0, 0.489409, 0.145829, -3.65155, 0.863653, 0.489409, 0, 0, 0, 0.489409, 0, 0, 0, 0.489409, 0.233877, -3.73803, 0.718418, 0.489409, 0, 0, 0, 0.489409, 0, 0, 0, 0.489409, 0.18051, -3.79695, 0.578364, 0.489409, 0, 0, 0, 0.489409, 0, 0, 0, 0.489409, 0.30484, -3.76787, 0.61039, 0.489409, 0, 0, 0, 0.489409, 0, 0, 0, 0.489409, 0.228226, -3.79903, 0.565774, 0.489409, 0, 0, 0, 0.489409, 0, 0, 0, 0.489409, -0.612447, -3.7379, 0.348348, 0.489409, 0, 0, 0, 0.489409, 0, 0, 0, 0.489409, -0.287473, -3.84694, 0.0631556, 0.489409, 0, 0, 0, 0.489409, 0, 0, 0, 0.489409, -0.246183, -3.86341, 0.164886, 0.489409, 0, 0, 0, 0.489409, 0, 0, 0, 0.489409, -0.28346, -3.86166, 0.235683, 0.489409, 0, 0, 0, 0.489409, 0, 0, 0, 0.489409, 0.269698, -3.79397, 0.494147, 0.489409, 0, 0, 0, 0.489409, 0, 0, 0, 0.489409, 0.541553, -3.58141, 0.828711, 0.489409, 0, 0, 0, 0.489409, 0, 0, 0, 0.489409, 0.407281, -3.72625, 0.641157, 0.489409, 0, 0, 0, 0.489409, 0, 0, 0, 0.489409, 0.526095, -3.66721, 0.614162, 0.489409, 0, 0, 0, 0.489409, 0, 0, 0, 0.489409, 0.386163, -3.7102, 0.74511, 0.489409, 0, 0, 0, 0.489409, 0, 0, 0, 0.489409, -0.0480787, -3.76581, 0.819577, 0.489409, 0, 0, 0, 0.489409, 0, 0, 0, 0.489409, 0.0217008, -3.76678, 0.735355, 0.489409, 0, 0, 0, 0.489409, 0, 0, 0, 0.489409, 0.0577732, -3.75066, 0.781755, 0.489409, 0, 0, 0, 0.489409, 0, 0, 0, 0.489409, -0.13663, -3.75134, 0.858701, 0.489409, 0, 0, 0, 0.489409, 0, 0, 0, 0.489409, 0.0537969, -3.69509, 0.95278, 0.489409, 0, 0, 0, 0.489409, 0, 0, 0, 0.489409, 0.615981, -3.55108, 0.952055, 0.489409, 0, 0, 0, 0.489409, 0, 0, 0, 0.489409, 0.469718, -3.61526, 0.928728, 0.489409, 0, 0, 0, 0.489409, 0, 0, 0, 0.489409, 0.504022, -3.55916, 1.03061, 0.489409, 0, 0, 0, 0.489409, 0, 0, 0, 0.489409, -0.215265, -3.47534, 1.29741, 0.489409, 0, 0, 0, 0.489409, 0, 0, 0, 0.489409, -0.0226826, -3.70318, 0.896404, 0.489409, 0, 0, 0, 0.489409, 0, 0, 0, 0.489409, 0.109063, -3.65565, 1.01317, 0.489409, 0, 0, 0, 0.489409, 0, 0, 0, 0.489409, 0.0815365, -3.68326, 0.945684, 0.489409, 0, 0, 0, 0.489409, 0, 0, 0, 0.489409, 0.193058, -3.62866, 1.05831, 0.489409, 0, 0, 0, 0.489409, 0, 0, 0, 0.489409, 0.134065, -3.47233, 1.30977, 0.489409, 0, 0, 0, 0.489409, 0, 0, 0, 0.489409, 1.1301, 2.38538, -2.51219, 0.489409, 0, 0, 0, 0.489409, 0, 0, 0, 0.489409, 0.928427, 2.45477, -2.44408, 0.489409, 0, 0, 0, 0.489409, 0, 0, 0, 0.489409, 0.945572, 2.4339, -2.53145, 0.489409, 0, 0, 0, 0.489409, 0, 0, 0, 0.489409, 0.979527, 2.0536, -3.05236, 0.489409, 0, 0, 0, 0.489409, 0, 0, 0, 0.489409, 1.09521, 2.03811, -3.01481, 0.489409, 0, 0, 0, 0.489409, 0, 0, 0, 0.489409, 1.06212, 1.87654, -3.16967, 0.489409, 0, 0, 0, 0.489409, 0, 0, 0, 0.489409, 0.565665, 2.36761, -2.71749, 0.489409, 0, 0, 0, 0.489409, 0, 0, 0, 0.489409, 0.74471, 2.33912, -2.78638, 0.489409, 0, 0, 0, 0.489409, 0, 0, 0, 0.489409, 0.651365, 1.50001, -3.45077, 0.489409, 0, 0, 0, 0.489409, 0, 0, 0, 0.489409, 0.468322, 1.51537, -3.49899, 0.489409, 0, 0, 0, 0.489409, 0, 0, 0, 0.489409, 0.523501, 1.49747, -3.50042, 0.489409, 0, 0, 0, 0.489409, 0, 0, 0, 0.489409, 0.045353, 1.68175, -3.37886, 0.489409, 0, 0, 0, 0.489409, 0, 0, 0, 0.489409, 0.134705, 1.99226, -3.12707, 0.489409, 0, 0, 0, 0.489409, 0, 0, 0, 0.489409, 0.323844, 2.08134, -2.98463, 0.489409, 0, 0, 0, 0.489409, 0, 0, 0, 0.489409, 0.247649, 1.72262, -3.39053, 0.489409, 0, 0, 0, 0.489409, 0, 0, 0, 0.489409, 0.113885, 1.61178, -3.42791, 0.489409, 0, 0, 0, 0.489409, 0, 0, 0, 0.489409, 0.810008, 1.5043, -3.42304, 0.489409, 0, 0, 0, 0.489409, 0, 0, 0, 0.489409, 0.729699, 1.56068, -3.42573, 0.489409, 0, 0, 0, 0.489409, 0, 0, 0, 0.489409, 0.106142, 0.331785, -3.72106, 0.489409, 0, 0, 0, 0.489409, 0, 0, 0, 0.489409, 0.0158073, 0.369025, -3.69225, 0.489409, 0, 0, 0, 0.489409, 0, 0, 0, 0.489409, 0.981376, 0.499166, -3.71921, 0.489409, 0, 0, 0, 0.489409, 0, 0, 0, 0.489409, 0.773013, 0.00202949, -3.70385, 0.489409, 0, 0, 0, 0.489409, 0, 0, 0, 0.489409, 0.885131, 0.0265465, -3.67207, 0.489409, 0, 0, 0, 0.489409, 0, 0, 0, 0.489409, 0.685011, -0.00964108, -3.71036, 0.489409, 0, 0, 0, 0.489409, 0, 0, 0, 0.489409, 0.666299, 0.690221, -3.75788, 0.489409, 0, 0, 0, 0.489409, 0, 0, 0, 0.489409, 0.604281, 0.617013, -3.76222, 0.489409, 0, 0, 0, 0.489409, 0, 0, 0, 0.489409, 0.718449, 0.604788, -3.75013, 0.489409, 0, 0, 0, 0.489409, 0, 0, 0, 0.489409, 0.72784, 0.538982, -3.75093, 0.489409, 0, 0, 0, 0.489409, 0, 0, 0, 0.489409, 0.690493, 0.527877, -3.75519, 0.489409, 0, 0, 0, 0.489409, 0, 0, 0, 0.489409, 0.144378, 0.669523, -3.68885, 0.489409, 0, 0, 0, 0.489409, 0, 0, 0, 0.489409, 0.587562, 0.547252, -3.77259, 0.489409, 0, 0, 0, 0.489409, 0, 0, 0, 0.489409, 0.741333, -0.377464, -3.66348, 0.489409, 0, 0, 0, 0.489409, 0, 0, 0, 0.489409, 0.75859, -0.23847, -3.68399, 0.489409, 0, 0, 0, 0.489409, 0, 0, 0, 0.489409, 0.817806, -0.405608, -3.62671, 0.489409, 0, 0, 0, 0.489409, 0, 0, 0, 0.489409, 0.514394, -0.261881, -3.72779, 0.489409, 0, 0, 0, 0.489409, 0, 0, 0, 0.489409, 0.342992, -0.686551, -3.512, 0.489409, 0, 0, 0, 0.489409, 0, 0, 0, 0.489409, 0.287772, -0.645464, -3.53578, 0.489409, 0, 0, 0, 0.489409, 0, 0, 0, 0.489409, 1.88524, 0.629262, -3.21668, 0.489409, 0, 0, 0, 0.489409, 0, 0, 0, 0.489409, 1.70611, 0.675845, -3.37704, 0.489409, 0, 0, 0, 0.489409, 0, 0, 0, 0.489409, 1.87106, 0.781774, -3.16177, 0.489409, 0, 0, 0, 0.489409, 0, 0, 0, 0.489409, 1.66495, 0.342198, -3.437, 0.489409, 0, 0, 0, 0.489409, 0, 0, 0, 0.489409, 1.66266, 0.44249, -3.4497, 0.489409, 0, 0, 0, 0.489409, 0, 0, 0, 0.489409, 1.70591, 0.456115, -3.42439, 0.489409, 0, 0, 0, 0.489409, 0, 0, 0, 0.489409, 1.52333, 0.816771, -3.44384, 0.489409, 0, 0, 0, 0.489409, 0, 0, 0, 0.489409, 1.69971, 0.824644, -3.32089, 0.489409, 0, 0, 0, 0.489409, 0, 0, 0, 0.489409, 1.55789, 0.331372, -3.51343, 0.489409, 0, 0, 0, 0.489409, 0, 0, 0, 0.489409, 1.65293, 0.129238, -3.42771, 0.489409, 0, 0, 0, 0.489409, 0, 0, 0, 0.489409, 1.36795, 0.766595, -3.54135, 0.489409, 0, 0, 0, 0.489409, 0, 0, 0, 0.489409, 1.65155, 0.267035, -3.43063, 0.489409, 0, 0, 0, 0.489409, 0, 0, 0, 0.489409, 1.43669, 0.278918, -3.57916, 0.489409, 0, 0, 0, 0.489409, 0, 0, 0, 0.489409, 1.52768, 0.181569, -3.50828, 0.489409, 0, 0, 0, 0.489409, 0, 0, 0, 0.489409, 1.60097, 0.341408, -3.4804, 0.489409, 0, 0, 0, 0.489409, 0, 0, 0, 0.489409, 1.01204, 0.762374, -3.67327, 0.489409, 0, 0, 0, 0.489409, 0, 0, 0, 0.489409, 1.46159, 1.30301, -3.29136, 0.489409, 0, 0, 0, 0.489409, 0, 0, 0, 0.489409, 1.52062, 1.33052, -3.24583, 0.489409, 0, 0, 0, 0.489409, 0, 0, 0, 0.489409, 1.42062, 1.09739, -3.42718, 0.489409, 0, 0, 0, 0.489409, 0, 0, 0, 0.489409, 1.59137, 1.33406, -3.18083, 0.489409, 0, 0, 0, 0.489409, 0, 0, 0, 0.489409, 1.65687, 1.22361, -3.20721, 0.489409, 0, 0, 0, 0.489409, 0, 0, 0, 0.489409, 1.51037, 1.24314, -3.27896, 0.489409, 0, 0, 0, 0.489409, 0, 0, 0, 0.489409, 1.27911, 1.34957, -3.371, 0.489409, 0, 0, 0, 0.489409, 0, 0, 0, 0.489409, 1.30023, 1.42457, -3.31724, 0.489409, 0, 0, 0, 0.489409, 0, 0, 0, 0.489409, 1.44966, 1.30558, -3.30017, 0.489409, 0, 0, 0, 0.489409, 0, 0, 0, 0.489409, 1.64513, 0.368574, -3.47025, 0.489409, 0, 0, 0, 0.489409, 0, 0, 0, 0.489409, 1.65814, 0.262238, -3.46915, 0.489409, 0, 0, 0, 0.489409, 0, 0, 0, 0.489409, 1.68378, 0.156528, -3.44669, 0.489409, 0, 0, 0, 0.489409, 0, 0, 0, 0.489409, 1.92328, -0.289673, -3.19549, 0.489409, 0, 0, 0, 0.489409, 0, 0, 0, 0.489409, 2.03435, -0.335752, -3.04756, 0.489409, 0, 0, 0, 0.489409, 0, 0, 0, 0.489409, 1.78016, -0.110929, -3.33512, 0.489409, 0, 0, 0, 0.489409, 0, 0, 0, 0.489409, 1.92997, -0.505029, -3.01739, 0.489409, 0, 0, 0, 0.489409, 0, 0, 0, 0.489409, 1.79207, -0.383992, -3.22374, 0.489409, 0, 0, 0, 0.489409, 0, 0, 0, 0.489409, 2.24242, -0.0213006, -2.90045, 0.489409, 0, 0, 0, 0.489409, 0, 0, 0, 0.489409, 2.12779, -0.00692726, -3.09017, 0.489409, 0, 0, 0, 0.489409, 0, 0, 0, 0.489409, 2.17528, 0.0286455, -3.0359, 0.489409, 0, 0, 0, 0.489409, 0, 0, 0, 0.489409, 2.30267, -0.460557, -2.66865, 0.489409, 0, 0, 0, 0.489409, 0, 0, 0, 0.489409, 2.32057, -0.44781, -2.6506, 0.489409, 0, 0, 0, 0.489409, 0, 0, 0, 0.489409, 2.36155, -0.378209, -2.63892, 0.489409, 0, 0, 0, 0.489409, 0, 0, 0, 0.489409, 2.18826, -0.24637, -2.94139, 0.489409, 0, 0, 0, 0.489409, 0, 0, 0, 0.489409, 1.75739, 0.742498, -3.35752, 0.489409, 0, 0, 0, 0.489409, 0, 0, 0, 0.489409, 1.75607, 1.21622, -3.1348, 0.489409, 0, 0, 0, 0.489409, 0, 0, 0, 0.489409, 1.82238, 0.879238, -3.29205, 0.489409, 0, 0, 0, 0.489409, 0, 0, 0, 0.489409, 1.90944, 0.842331, -3.23498, 0.489409, 0, 0, 0, 0.489409, 0, 0, 0, 0.489409, 1.8761, 0.698622, -3.28958, 0.489409, 0, 0, 0, 0.489409, 0, 0, 0, 0.489409, 1.78895, 1.47086, -2.89465, 0.489409, 0, 0, 0, 0.489409, 0, 0, 0, 0.489409, 1.84303, 1.48841, -2.78415, 0.489409, 0, 0, 0, 0.489409, 0, 0, 0, 0.489409, 1.69159, 1.51118, -2.89243, 0.489409, 0, 0, 0, 0.489409, 0, 0, 0, 0.489409, 1.86953, 1.36651, -2.9461, 0.489409, 0, 0, 0, 0.489409, 0, 0, 0, 0.489409, 2.00019, 1.21259, -2.95435, 0.489409, 0, 0, 0, 0.489409, 0, 0, 0, 0.489409, 2.0313, 1.30395, -2.82058, 0.489409, 0, 0, 0, 0.489409, 0, 0, 0, 0.489409, 1.91008, 1.24259, -2.98336, 0.489409, 0, 0, 0, 0.489409, 0, 0, 0, 0.489409, 1.9106, 1.12917, -3.11095, 0.489409, 0, 0, 0, 0.489409, 0, 0, 0, 0.489409, 1.83549, 1.19748, -3.10502, 0.489409, 0, 0, 0, 0.489409, 0, 0, 0, 0.489409, 1.96047, 1.02158, -3.12453, 0.489409, 0, 0, 0, 0.489409, 0, 0, 0, 0.489409, 1.56916, 0.836199, -3.40821, 0.489409, 0, 0, 0, 0.489409, 0, 0, 0, 0.489409, 1.82353, 0.539256, -3.36873, 0.489409, 0, 0, 0, 0.489409, 0, 0, 0, 0.489409, 1.78286, 0.31364, -3.41319, 0.489409, 0, 0, 0, 0.489409, 0, 0, 0, 0.489409, 1.85353, 0.344979, -3.36255, 0.489409, 0, 0, 0, 0.489409, 0, 0, 0, 0.489409, 1.69057, 0.411292, -3.46269, 0.489409, 0, 0, 0, 0.489409, 0, 0, 0, 0.489409, 1.7719, 0.773143, -3.35785, 0.489409, 0, 0, 0, 0.489409, 0, 0, 0, 0.489409, 1.74133, 0.910453, -3.34103, 0.489409, 0, 0, 0, 0.489409, 0, 0, 0, 0.489409, 2.04542, 0.813913, -3.11717, 0.489409, 0, 0, 0, 0.489409, 0, 0, 0, 0.489409, 1.84463, 0.817745, -3.29061, 0.489409, 0, 0, 0, 0.489409, 0, 0, 0, 0.489409, 1.93211, 1.07994, -3.1294, 0.489409, 0, 0, 0, 0.489409, 0, 0, 0, 0.489409, 1.92873, 0.999766, -3.17123, 0.489409, 0, 0, 0, 0.489409, 0, 0, 0, 0.489409, 1.34349, 0.314571, -3.61542, 0.489409, 0, 0, 0, 0.489409, 0, 0, 0, 0.489409, 1.44495, 0.30315, -3.60064, 0.489409, 0, 0, 0, 0.489409, 0, 0, 0, 0.489409, 1.48818, 0.336342, -3.5863, 0.489409, 0, 0, 0, 0.489409, 0, 0, 0, 0.489409, 1.12661, 0.0887215, -3.62823, 0.489409, 0, 0, 0, 0.489409, 0, 0, 0, 0.489409, 1.15983, 0.131629, -3.63819, 0.489409, 0, 0, 0, 0.489409, 0, 0, 0, 0.489409, 1.32476, 0.156931, -3.62572, 0.489409, 0, 0, 0, 0.489409, 0, 0, 0, 0.489409, 1.16916, -0.0269393, -3.59894, 0.489409, 0, 0, 0, 0.489409, 0, 0, 0, 0.489409, 1.72877, 0.333859, -3.47254, 0.489409, 0, 0, 0, 0.489409, 0, 0, 0, 0.489409, 1.63396, 0.681999, -3.45906, 0.489409, 0, 0, 0, 0.489409, 0, 0, 0, 0.489409, 0.132437, -0.0489364, -3.74893, 0.489409, 0, 0, 0, 0.489409, 0, 0, 0, 0.489409, 0.175191, 0.308118, -3.78959, 0.489409, 0, 0, 0, 0.489409, 0, 0, 0, 0.489409, -0.0153823, 0.245398, -3.77285, 0.489409, 0, 0, 0, 0.489409, 0, 0, 0, 0.489409, 0.0281982, 0.330977, -3.7741, 0.489409, 0, 0, 0, 0.489409, 0, 0, 0, 0.489409, -0.213173, 0.0356658, -3.6881, 0.489409, 0, 0, 0, 0.489409, 0, 0, 0, 0.489409, -0.303582, 0.0523847, -3.65545, 0.489409, 0, 0, 0, 0.489409, 0, 0, 0, 0.489409, -0.303447, 0.0175492, -3.64304, 0.489409, 0, 0, 0, 0.489409, 0, 0, 0, 0.489409, 0.0102919, 0.153342, -3.76523, 0.489409, 0, 0, 0, 0.489409, 0, 0, 0, 0.489409, -0.168012, 0.230762, -3.7267, 0.489409, 0, 0, 0, 0.489409, 0, 0, 0, 0.489409, -0.33263, 0.0154266, -3.6183, 0.489409, 0, 0, 0, 0.489409, 0, 0, 0, 0.489409, 0.62526, 0.168936, -3.77926, 0.489409, 0, 0, 0, 0.489409, 0, 0, 0, 0.489409, 0.622987, -0.0168823, -3.74166, 0.489409, 0, 0, 0, 0.489409, 0, 0, 0, 0.489409, 0.53124, -0.00124626, -3.7651, 0.489409, 0, 0, 0, 0.489409, 0, 0, 0, 0.489409, 0.569539, -0.155189, -3.70176, 0.489409, 0, 0, 0, 0.489409, 0, 0, 0, 0.489409, 0.62673, 0.0623744, -3.75727, 0.489409, 0, 0, 0, 0.489409, 0, 0, 0, 0.489409, 0.877732, 1.60965, -3.27674, 0.489409, 0, 0, 0, 0.489409, 0, 0, 0, 0.489409, 1.02074, 1.65386, -3.11666, 0.489409, 0, 0, 0, 0.489409, 0, 0, 0, 0.489409, 0.92393, 1.41113, -3.41919, 0.489409, 0, 0, 0, 0.489409, 0, 0, 0, 0.489409, -0.0392365, 1.75038, -3.11341, 0.489409, 0, 0, 0, 0.489409, 0, 0, 0, 0.489409, -0.0307435, 1.78212, -3.08327, 0.489409, 0, 0, 0, 0.489409, 0, 0, 0, 0.489409, 0.539687, 1.39621, -3.49488, 0.489409, 0, 0, 0, 0.489409, 0, 0, 0, 0.489409, 0.392207, 1.27089, -3.56234, 0.489409, 0, 0, 0, 0.489409, 0, 0, 0, 0.489409, 0.566499, 1.20265, -3.5752, 0.489409, 0, 0, 0, 0.489409, 0, 0, 0, 0.489409, 0.649211, 1.23245, -3.53942, 0.489409, 0, 0, 0, 0.489409, 0, 0, 0, 0.489409, 0.666386, 1.16348, -3.55672, 0.489409, 0, 0, 0, 0.489409, 0, 0, 0, 0.489409, 0.132903, 1.41612, -3.42885, 0.489409, 0, 0, 0, 0.489409, 0, 0, 0, 0.489409, 0.17302, 1.22072, -3.52066, 0.489409, 0, 0, 0, 0.489409, 0, 0, 0, 0.489409, 0.168893, 1.19822, -3.52323, 0.489409, 0, 0, 0, 0.489409, 0, 0, 0, 0.489409, 0.0376192, 1.36473, -3.41907, 0.489409, 0, 0, 0, 0.489409, 0, 0, 0, 0.489409, -0.10024, 1.43104, -3.28347, 0.489409, 0, 0, 0, 0.489409, 0, 0, 0, 0.489409, 0.130309, 1.38306, -3.44207, 0.489409, 0, 0, 0, 0.489409, 0, 0, 0, 0.489409, 0.0926756, 1.57989, -3.29148, 0.489409, 0, 0, 0, 0.489409, 0, 0, 0, 0.489409, 0.774511, 1.94041, -2.9092, 0.489409, 0, 0, 0, 0.489409, 0, 0, 0, 0.489409, 0.840272, 1.76329, -3.15224, 0.489409, 0, 0, 0, 0.489409, 0, 0, 0, 0.489409, 1.572, 0.958023, -3.40113, 0.489409, 0, 0, 0, 0.489409, 0, 0, 0, 0.489409, 1.65697, 1.03131, -3.34926, 0.489409, 0, 0, 0, 0.489409, 0, 0, 0, 0.489409, 1.55803, 0.967738, -3.40199, 0.489409, 0, 0, 0, 0.489409, 0, 0, 0, 0.489409, 1.64472, 0.936971, -3.38959, 0.489409, 0, 0, 0, 0.489409, 0, 0, 0, 0.489409, 0.81537, 0.7248, -3.65268, 0.489409, 0, 0, 0, 0.489409, 0, 0, 0, 0.489409, 0.91341, 0.382482, -3.6712, 0.489409, 0, 0, 0, 0.489409, 0, 0, 0, 0.489409, 0.986816, 0.561851, -3.68122, 0.489409, 0, 0, 0, 0.489409, 0, 0, 0, 0.489409, 1.4884, 0.632249, -3.53419, 0.489409, 0, 0, 0, 0.489409, 0, 0, 0, 0.489409, 1.2932, 0.77372, -3.572, 0.489409, 0, 0, 0, 0.489409, 0, 0, 0, 0.489409, 1.32249, 0.907152, -3.519, 0.489409, 0, 0, 0, 0.489409, 0, 0, 0, 0.489409, 1.78053, 1.23344, -3.11098, 0.489409, 0, 0, 0, 0.489409, 0, 0, 0, 0.489409, 1.62321, 1.13861, -3.2039, 0.489409, 0, 0, 0, 0.489409, 0, 0, 0, 0.489409, 2.18038, 1.36236, -2.60923, 0.489409, 0, 0, 0, 0.489409, 0, 0, 0, 0.489409, 2.39677, 0.699875, -2.85694, 0.489409, 0, 0, 0, 0.489409, 0, 0, 0, 0.489409, 2.44773, 0.937582, -2.71418, 0.489409, 0, 0, 0, 0.489409, 0, 0, 0, 0.489409, 2.37888, 0.762167, -2.86946, 0.489409, 0, 0, 0, 0.489409, 0, 0, 0, 0.489409, 2.45273, 0.957437, -2.68179, 0.489409, 0, 0, 0, 0.489409, 0, 0, 0, 0.489409, 1.69097, 0.833177, -3.32368, 0.489409, 0, 0, 0, 0.489409, 0, 0, 0, 0.489409, 1.7046, 0.68681, -3.3351, 0.489409, 0, 0, 0, 0.489409, 0, 0, 0, 0.489409, 1.73557, 0.94473, -3.27272, 0.489409, 0, 0, 0, 0.489409, 0, 0, 0, 0.489409, 2.72325, 0.573836, -2.43489, 0.489409, 0, 0, 0, 0.489409, 0, 0, 0, 0.489409, 2.10959, 2.33625, 2.06161, 0.489409, 0, 0, 0, 0.489409, 0, 0, 0, 0.489409, 2.073, 2.51665, 1.92199, 0.489409, 0, 0, 0, 0.489409, 0, 0, 0, 0.489409, 1.16998, 2.9772, 2.01399, 0.489409, 0, 0, 0, 0.489409, 0, 0, 0, 0.489409, 1.36547, 2.9423, 2.06382, 0.489409, 0, 0, 0, 0.489409, 0, 0, 0, 0.489409, 1.21203, 2.93241, 2.13002, 0.489409, 0, 0, 0, 0.489409, 0, 0, 0, 0.489409, 1.78495, 2.36507, 2.46132, 0.489409, 0, 0, 0, 0.489409, 0, 0, 0, 0.489409, 1.84814, 2.1706, 2.50533, 0.489409, 0, 0, 0, 0.489409, 0, 0, 0, 0.489409, 1.51315, 2.72, 2.29764, 0.489409, 0, 0, 0, 0.489409, 0, 0, 0, 0.489409, 1.51285, 2.68599, 2.34248, 0.489409, 0, 0, 0, 0.489409, 0, 0, 0, 0.489409, 1.83357, 2.40118, 2.40042, 0.489409, 0, 0, 0, 0.489409, 0, 0, 0, 0.489409, 1.81769, 2.29469, 2.48715, 0.489409, 0, 0, 0, 0.489409, 0, 0, 0, 0.489409, 1.87289, 2.3621, 2.39705, 0.489409, 0, 0, 0, 0.489409, 0, 0, 0, 0.489409, 0.582252, 2.75773, 2.37946, 0.489409, 0, 0, 0, 0.489409, 0, 0, 0, 0.489409, 0.652937, 2.79333, 2.37074, 0.489409, 0, 0, 0, 0.489409, 0, 0, 0, 0.489409, 0.584875, 2.76578, 2.3702, 0.489409, 0, 0, 0, 0.489409, 0, 0, 0, 0.489409, 0.914869, 2.65631, 2.53656, 0.489409, 0, 0, 0, 0.489409, 0, 0, 0, 0.489409, 0.977451, 2.55566, 2.59614, 0.489409, 0, 0, 0, 0.489409, 0, 0, 0, 0.489409, 0.802784, 2.46559, 2.64141, 0.489409, 0, 0, 0, 0.489409, 0, 0, 0, 0.489409, 1.10606, 2.6243, 2.53128, 0.489409, 0, 0, 0, 0.489409, 0, 0, 0, 0.489409, 1.01505, 2.47235, 2.64025, 0.489409, 0, 0, 0, 0.489409, 0, 0, 0, 0.489409, 2.28774, 2.60807, 1.51642, 0.489409, 0, 0, 0, 0.489409, 0, 0, 0, 0.489409, 2.27871, 2.40774, 1.82873, 0.489409, 0, 0, 0, 0.489409, 0, 0, 0, 0.489409, 2.47866, 2.36612, 1.06157, 0.489409, 0, 0, 0, 0.489409, 0, 0, 0, 0.489409, 2.34529, 2.59363, 1.02987, 0.489409, 0, 0, 0, 0.489409, 0, 0, 0, 0.489409, 2.30754, 2.34091, 1.8621, 0.489409, 0, 0, 0, 0.489409, 0, 0, 0, 0.489409, 2.24195, 2.20138, 2.02971, 0.489409, 0, 0, 0, 0.489409, 0, 0, 0, 0.489409, 2.26467, 2.32963, 1.9446, 0.489409, 0, 0, 0, 0.489409, 0, 0, 0, 0.489409, 2.48301, 2.19515, 1.57713, 0.489409, 0, 0, 0, 0.489409, 0, 0, 0, 0.489409, 2.46461, 2.18724, 1.67375, 0.489409, 0, 0, 0, 0.489409, 0, 0, 0, 0.489409, 2.39804, 2.37976, 1.62558, 0.489409, 0, 0, 0, 0.489409, 0, 0, 0, 0.489409, 2.13493, 2.63203, 1.76015, 0.489409, 0, 0, 0, 0.489409, 0, 0, 0, 0.489409, 1.40594, 3.12625, 1.63265, 0.489409, 0, 0, 0, 0.489409, 0, 0, 0, 0.489409, 1.54975, 3.09978, 1.64974, 0.489409, 0, 0, 0, 0.489409, 0, 0, 0, 0.489409, 1.55258, 3.09179, 1.66645, 0.489409, 0, 0, 0, 0.489409, 0, 0, 0, 0.489409, 1.4189, 3.08521, 1.71036, 0.489409, 0, 0, 0, 0.489409, 0, 0, 0, 0.489409, 1.57813, 2.99449, 1.80915, 0.489409, 0, 0, 0, 0.489409, 0, 0, 0, 0.489409, 1.61603, 3.10069, 1.57427, 0.489409, 0, 0, 0, 0.489409, 0, 0, 0, 0.489409, 1.81753, 2.84892, 1.86227, 0.489409, 0, 0, 0, 0.489409, 0, 0, 0, 0.489409, 1.94851, 3.01568, 0.980338, 0.489409, 0, 0, 0, 0.489409, 0, 0, 0, 0.489409, 1.02719, 3.15019, 1.97036, 0.489409, 0, 0, 0, 0.489409, 0, 0, 0, 0.489409, 0.956736, 3.2492, 1.88027, 0.489409, 0, 0, 0, 0.489409, 0, 0, 0, 0.489409, 0.576934, 3.57028, 1.15074, 0.489409, 0, 0, 0, 0.489409, 0, 0, 0, 0.489409, 0.56366, 3.57568, 1.1715, 0.489409, 0, 0, 0, 0.489409, 0, 0, 0, 0.489409, 1.76369, 2.84041, 1.56382, 0.489409, 0, 0, 0, 0.489409, 0, 0, 0, 0.489409, 1.70554, 2.91175, 1.42137, 0.489409, 0, 0, 0, 0.489409, 0, 0, 0, 0.489409, 1.72732, 2.89544, 1.4429, 0.489409, 0, 0, 0, 0.489409, 0, 0, 0, 0.489409, 1.83905, 2.76424, 1.51649, 0.489409, 0, 0, 0, 0.489409, 0, 0, 0, 0.489409, 1.13949, 2.82241, 2.3264, 0.489409, 0, 0, 0, 0.489409, 0, 0, 0, 0.489409, 1.03335, 2.97572, 2.23189, 0.489409, 0, 0, 0, 0.489409, 0, 0, 0, 0.489409, 1.02718, 2.91063, 2.30017, 0.489409, 0, 0, 0, 0.489409, 0, 0, 0, 0.489409, 1.26182, 3.14605, 1.75224, 0.489409, 0, 0, 0, 0.489409, 0, 0, 0, 0.489409, 1.27545, 3.13592, 1.76522, 0.489409, 0, 0, 0, 0.489409, 0, 0, 0, 0.489409, 1.02684, 3.13231, 2.00589, 0.489409, 0, 0, 0, 0.489409, 0, 0, 0, 0.489409, 1.19091, 3.1241, 1.93833, 0.489409, 0, 0, 0, 0.489409, 0, 0, 0, 0.489409, 1.73534, 2.45655, 2.08813, 0.489409, 0, 0, 0, 0.489409, 0, 0, 0, 0.489409, 1.68034, 2.59496, 2.10354, 0.489409, 0, 0, 0, 0.489409, 0, 0, 0, 0.489409, 1.75075, 2.53146, 2.0169, 0.489409, 0, 0, 0, 0.489409, 0, 0, 0, 0.489409, 1.55684, 2.8642, 1.9684, 0.489409, 0, 0, 0, 0.489409, 0, 0, 0, 0.489409, 1.52121, 2.84526, 2.03798, 0.489409, 0, 0, 0, 0.489409, 0, 0, 0, 0.489409, 1.23602, 2.82963, 2.26897, 0.489409, 0, 0, 0, 0.489409, 0, 0, 0, 0.489409, 0.361335, 3.36086, 1.85607, 0.489409, 0, 0, 0, 0.489409, 0, 0, 0, 0.489409, 0.56785, 3.37874, 1.81792, 0.489409, 0, 0, 0, 0.489409, 0, 0, 0, 0.489409, 0.384124, 3.37276, 1.83931, 0.489409, 0, 0, 0, 0.489409, 0, 0, 0, 0.489409, 0.0536857, 3.09467, 2.21717, 0.489409, 0, 0, 0, 0.489409, 0, 0, 0, 0.489409, 0.0832932, 3.17346, 2.11451, 0.489409, 0, 0, 0, 0.489409, 0, 0, 0, 0.489409, 0.622405, 3.21975, 2.09395, 0.489409, 0, 0, 0, 0.489409, 0, 0, 0, 0.489409, 0.621541, 3.19879, 2.13565, 0.489409, 0, 0, 0, 0.489409, 0, 0, 0, 0.489409, 0.592278, 3.16967, 2.19388, 0.489409, 0, 0, 0, 0.489409, 0, 0, 0, 0.489409, 0.254949, 3.24717, 2.07067, 0.489409, 0, 0, 0, 0.489409, 0, 0, 0, 0.489409, 0.238603, 3.30263, 1.98863, 0.489409, 0, 0, 0, 0.489409, 0, 0, 0, 0.489409, 0.340169, 3.43263, 1.72357, 0.489409, 0, 0, 0, 0.489409, 0, 0, 0, 0.489409, 0.594905, 3.38557, 1.80091, 0.489409, 0, 0, 0, 0.489409, 0, 0, 0, 0.489409, 0.0486992, 3.43116, 1.64068, 0.489409, 0, 0, 0, 0.489409, 0, 0, 0, 0.489409, 0.776067, 3.36643, 1.75873, 0.489409, 0, 0, 0, 0.489409, 0, 0, 0, 0.489409, 0.410961, 3.3283, 1.9427, 0.489409, 0, 0, 0, 0.489409, 0, 0, 0, 0.489409, 1.05292, 3.06999, 2.07025, 0.489409, 0, 0, 0, 0.489409, 0, 0, 0, 0.489409, 1.0423, 3.0356, 2.12912, 0.489409, 0, 0, 0, 0.489409, 0, 0, 0, 0.489409, 0.864633, 2.99742, 2.25869, 0.489409, 0, 0, 0, 0.489409, 0, 0, 0, 0.489409, 1.09981, 3.17693, 1.84803, 0.489409, 0, 0, 0, 0.489409, 0, 0, 0, 0.489409, 1.06043, 3.19529, 1.86002, 0.489409, 0, 0, 0, 0.489409, 0, 0, 0, 0.489409, 1.03883, 3.21027, 1.84323, 0.489409, 0, 0, 0, 0.489409, 0, 0, 0, 0.489409, 0.87849, 3.20099, 2.03102, 0.489409, 0, 0, 0, 0.489409, 0, 0, 0, 0.489409, 0.71879, 3.29485, 1.94105, 0.489409, 0, 0, 0, 0.489409, 0, 0, 0, 0.489409, 0.752831, 3.17774, 2.12281, 0.489409, 0, 0, 0, 0.489409, 0, 0, 0, 0.489409, 1.51521, 3.38044, 0.857429, 0.489409, 0, 0, 0, 0.489409, 0, 0, 0, 0.489409, 1.48438, 3.21879, 1.38912, 0.489409, 0, 0, 0, 0.489409, 0, 0, 0, 0.489409, 1.49896, 3.22696, 1.36178, 0.489409, 0, 0, 0, 0.489409, 0, 0, 0, 0.489409, 1.67326, 3.21197, 1.0567, 0.489409, 0, 0, 0, 0.489409, 0, 0, 0, 0.489409, 1.70562, 3.20792, 0.945931, 0.489409, 0, 0, 0, 0.489409, 0, 0, 0, 0.489409, 0.933184, 3.62735, 0.751392, 0.489409, 0, 0, 0, 0.489409, 0, 0, 0, 0.489409, 1.09386, 3.5675, 0.521322, 0.489409, 0, 0, 0, 0.489409, 0, 0, 0, 0.489409, 1.17733, 3.56138, 0.713251, 0.489409, 0, 0, 0, 0.489409, 0, 0, 0, 0.489409, 1.25517, 3.48302, 0.468159, 0.489409, 0, 0, 0, 0.489409, 0, 0, 0, 0.489409, 1.41305, 3.39893, 1.03054, 0.489409, 0, 0, 0, 0.489409, 0, 0, 0, 0.489409, 1.17112, 3.45586, 1.31955, 0.489409, 0, 0, 0, 0.489409, 0, 0, 0, 0.489409, 1.20027, 3.47862, 1.2044, 0.489409, 0, 0, 0, 0.489409, 0, 0, 0, 0.489409, 1.31609, 3.37075, 1.36328, 0.489409, 0, 0, 0, 0.489409, 0, 0, 0, 0.489409, 1.3885, 3.29213, 1.4187, 0.489409, 0, 0, 0, 0.489409, 0, 0, 0, 0.489409, 1.46986, 3.14063, 1.49477, 0.489409, 0, 0, 0, 0.489409, 0, 0, 0, 0.489409, 1.20578, 2.81955, 2.13242, 0.489409, 0, 0, 0, 0.489409, 0, 0, 0, 0.489409, 1.33959, 3.01638, 1.86455, 0.489409, 0, 0, 0, 0.489409, 0, 0, 0, 0.489409, 1.18368, 2.92905, 2.07454, 0.489409, 0, 0, 0, 0.489409, 0, 0, 0, 0.489409, 1.3858, 2.91828, 1.91024, 0.489409, 0, 0, 0, 0.489409, 0, 0, 0, 0.489409, 1.18861, 3.43294, 1.2979, 0.489409, 0, 0, 0, 0.489409, 0, 0, 0, 0.489409, 1.02168, 3.52101, 1.15914, 0.489409, 0, 0, 0, 0.489409, 0, 0, 0, 0.489409, 0.873577, 3.42503, 1.57407, 0.489409, 0, 0, 0, 0.489409, 0, 0, 0, 0.489409, 1.01104, 3.48461, 1.36546, 0.489409, 0, 0, 0, 0.489409, 0, 0, 0, 0.489409, 0.76809, 3.60549, 1.05867, 0.489409, 0, 0, 0, 0.489409, 0, 0, 0, 0.489409, 0.412157, 3.6184, 1.12442, 0.489409, 0, 0, 0, 0.489409, 0, 0, 0, 0.489409, 0.223669, 3.5605, 1.15291, 0.489409, 0, 0, 0, 0.489409, 0, 0, 0, 0.489409, 0.956198, 3.5238, 1.15912, 0.489409, 0, 0, 0, 0.489409, 0, 0, 0, 0.489409, 0.757405, 3.59386, 1.14802, 0.489409, 0, 0, 0, 0.489409, 0, 0, 0, 0.489409, 0.968146, 3.48008, 1.29652, 0.489409, 0, 0, 0, 0.489409, 0, 0, 0, 0.489409, 0.453333, 3.26771, 1.89968, 0.489409, 0, 0, 0, 0.489409, 0, 0, 0, 0.489409, 0.800531, 2.87099, 2.28871, 0.489409, 0, 0, 0, 0.489409, 0, 0, 0, 0.489409, 0.780261, 2.78738, 2.34311, 0.489409, 0, 0, 0, 0.489409, 0, 0, 0, 0.489409, 1.09006, 2.62764, 2.37598, 0.489409, 0, 0, 0, 0.489409, 0, 0, 0, 0.489409, 0.943667, 3.0681, 2.09056, 0.489409, 0, 0, 0, 0.489409, 0, 0, 0, 0.489409, 0.88828, 2.97, 2.21572, 0.489409, 0, 0, 0, 0.489409, 0, 0, 0, 0.489409, -0.203189, 3.4425, 0.736492, 0.489409, 0, 0, 0, 0.489409, 0, 0, 0, 0.489409, -0.147272, 3.45018, 0.98305, 0.489409, 0, 0, 0, 0.489409, 0, 0, 0, 0.489409, -0.176326, 3.45732, 0.777957, 0.489409, 0, 0, 0, 0.489409, 0, 0, 0, 0.489409, -0.203483, 3.41321, 0.964586, 0.489409, 0, 0, 0, 0.489409, 0, 0, 0, 0.489409, -0.194915, 3.445, 0.80773, 0.489409, 0, 0, 0, 0.489409, 0, 0, 0, 0.489409, 0.259909, 3.59022, 1.06619, 0.489409, 0, 0, 0, 0.489409, 0, 0, 0, 0.489409, 0.303618, 3.59471, 1.06992, 0.489409, 0, 0, 0, 0.489409, 0, 0, 0, 0.489409, 0.163343, 3.5753, 1.02588, 0.489409, 0, 0, 0, 0.489409, 0, 0, 0, 0.489409, 0.474879, 3.6657, 0.733091, 0.489409, 0, 0, 0, 0.489409, 0, 0, 0, 0.489409, 0.299201, 3.65139, 0.691816, 0.489409, 0, 0, 0, 0.489409, 0, 0, 0, 0.489409, 0.370322, 3.66216, 0.765614, 0.489409, 0, 0, 0, 0.489409, 0, 0, 0, 0.489409, 1.0479, 3.558, 1.00825, 0.489409, 0, 0, 0, 0.489409, 0, 0, 0, 0.489409, 1.1151, 3.54992, 0.844999, 0.489409, 0, 0, 0, 0.489409, 0, 0, 0, 0.489409, 0.959789, 3.61004, 0.866647, 0.489409, 0, 0, 0, 0.489409, 0, 0, 0, 0.489409, 0.761606, 3.51151, 1.40851, 0.489409, 0, 0, 0, 0.489409, 0, 0, 0, 0.489409, 0.8489, 3.44715, 1.46959, 0.489409, 0, 0, 0, 0.489409, 0, 0, 0, 0.489409, 0.726496, 3.47004, 1.51692, 0.489409, 0, 0, 0, 0.489409, 0, 0, 0, 0.489409, 0.861162, 3.494, 1.36901, 0.489409, 0, 0, 0, 0.489409, 0, 0, 0, 0.489409, 0.840717, 3.50369, 1.37423, 0.489409, 0, 0, 0, 0.489409, 0, 0, 0, 0.489409, 1.1108, 3.36482, 1.5276, 0.489409, 0, 0, 0, 0.489409, 0, 0, 0, 0.489409, 1.10267, 3.43101, 1.30297, 0.489409, 0, 0, 0, 0.489409, 0, 0, 0, 0.489409, 1.25689, 3.3489, 1.31371, 0.489409, 0, 0, 0, 0.489409, 0, 0, 0, 0.489409, 0.967852, 3.45715, 1.3851, 0.489409, 0, 0, 0, 0.489409, 0, 0, 0, 0.489409, 1.04331, 3.4532, 1.25908, 0.489409, 0, 0, 0, 0.489409, 0, 0, 0, 0.489409, 1.04292, 3.46795, 1.19132, 0.489409, 0, 0, 0, 0.489409, 0, 0, 0, 0.489409, 0.775802, 3.57378, 1.17771, 0.489409, 0, 0, 0, 0.489409, 0, 0, 0, 0.489409, 0.850974, 3.56463, 1.08195, 0.489409, 0, 0, 0, 0.489409, 0, 0, 0, 0.489409, 0.454577, 2.91606, 2.42306, 0.489409, 0, 0, 0, 0.489409, 0, 0, 0, 0.489409, 0.403017, 3.00268, 2.33172, 0.489409, 0, 0, 0, 0.489409, 0, 0, 0, 0.489409, 0.630717, 2.9099, 2.40601, 0.489409, 0, 0, 0, 0.489409, 0, 0, 0, 0.489409, 0.52861, 2.97061, 2.37411, 0.489409, 0, 0, 0, 0.489409, 0, 0, 0, 0.489409, 0.475336, 2.86497, 2.47491, 0.489409, 0, 0, 0, 0.489409, 0, 0, 0, 0.489409, 0.513209, 3.14715, 2.09684, 0.489409, 0, 0, 0, 0.489409, 0, 0, 0, 0.489409, 1.32087, 2.92781, 2.11748, 0.489409, 0, 0, 0, 0.489409, 0, 0, 0, 0.489409, 1.4522, 3.10218, 1.69953, 0.489409, 0, 0, 0, 0.489409, 0, 0, 0, 0.489409, 1.55206, 3.01003, 1.77299, 0.489409, 0, 0, 0, 0.489409, 0, 0, 0, 0.489409, 1.4746, 3.08999, 1.69214, 0.489409, 0, 0, 0, 0.489409, 0, 0, 0, 0.489409, 1.32535, 3.05159, 1.96661, 0.489409, 0, 0, 0, 0.489409, 0, 0, 0, 0.489409, 1.37523, 3.04868, 1.94091, 0.489409, 0, 0, 0, 0.489409, 0, 0, 0, 0.489409, 1.43581, 3.04275, 1.89238, 0.489409, 0, 0, 0, 0.489409, 0, 0, 0, 0.489409, 1.08214, 2.48149, 2.564, 0.489409, 0, 0, 0, 0.489409, 0, 0, 0, 0.489409, 1.08143, 2.56399, 2.54406, 0.489409, 0, 0, 0, 0.489409, 0, 0, 0, 0.489409, 1.05836, 2.87161, 2.34706, 0.489409, 0, 0, 0, 0.489409, 0, 0, 0, 0.489409, 1.10161, 2.67517, 2.4759, 0.489409, 0, 0, 0, 0.489409, 0, 0, 0, 0.489409, 1.22934, 2.61856, 2.43128, 0.489409, 0, 0, 0, 0.489409, 0, 0, 0, 0.489409, 1.17444, 2.80646, 2.34475, 0.489409, 0, 0, 0, 0.489409, 0, 0, 0, 0.489409, 1.30919, 2.83294, 2.25853, 0.489409, 0, 0, 0, 0.489409, 0, 0, 0, 0.489409, 1.0337, 3.14497, 1.95152, 0.489409, 0, 0, 0, 0.489409, 0, 0, 0, 0.489409, 1.16769, 3.01019, 2.13898, 0.489409, 0, 0, 0, 0.489409, 0, 0, 0, 0.489409, 3.1438, 0.56511, 2.05501, 0.489409, 0, 0, 0, 0.489409, 0, 0, 0, 0.489409, 3.13453, 0.544831, 2.0989, 0.489409, 0, 0, 0, 0.489409, 0, 0, 0, 0.489409, 3.14432, 0.648113, 2.02015, 0.489409, 0, 0, 0, 0.489409, 0, 0, 0, 0.489409, 3.19377, 0.515128, 1.86073, 0.489409, 0, 0, 0, 0.489409, 0, 0, 0, 0.489409, 3.19142, 0.565623, 1.854, 0.489409, 0, 0, 0, 0.489409, 0, 0, 0, 0.489409, 3.13714, 0.481192, 2.08081, 0.489409, 0, 0, 0, 0.489409, 0, 0, 0, 0.489409, 3.11097, 0.569714, 2.1534, 0.489409, 0, 0, 0, 0.489409, 0, 0, 0, 0.489409, 3.08994, 0.501968, 2.19679, 0.489409, 0, 0, 0, 0.489409, 0, 0, 0, 0.489409, 2.88066, -0.184335, 2.37856, 0.489409, 0, 0, 0, 0.489409, 0, 0, 0, 0.489409, 2.83289, -0.405835, 2.28286, 0.489409, 0, 0, 0, 0.489409, 0, 0, 0, 0.489409, 2.74521, -0.483896, 2.31704, 0.489409, 0, 0, 0, 0.489409, 0, 0, 0, 0.489409, 2.88243, -0.3163, 2.27737, 0.489409, 0, 0, 0, 0.489409, 0, 0, 0, 0.489409, 3.04383, -0.105354, 2.11966, 0.489409, 0, 0, 0, 0.489409, 0, 0, 0, 0.489409, 2.8883, -0.545142, 2.03848, 0.489409, 0, 0, 0, 0.489409, 0, 0, 0, 0.489409, 2.76749, -0.645061, 2.06937, 0.489409, 0, 0, 0, 0.489409, 0, 0, 0, 0.489409, 2.91279, -0.535299, 1.98033, 0.489409, 0, 0, 0, 0.489409, 0, 0, 0, 0.489409, 2.81317, -0.413051, 2.30037, 0.489409, 0, 0, 0, 0.489409, 0, 0, 0, 0.489409, 2.78125, -0.533279, 2.22654, 0.489409, 0, 0, 0, 0.489409, 0, 0, 0, 0.489409, 2.67397, -0.482132, 2.37744, 0.489409, 0, 0, 0, 0.489409, 0, 0, 0, 0.489409, 3.04084, 0.165452, 2.24358, 0.489409, 0, 0, 0, 0.489409, 0, 0, 0, 0.489409, 3.06923, 0.41394, 2.14091, 0.489409, 0, 0, 0, 0.489409, 0, 0, 0, 0.489409, 3.05505, 0.247834, 2.24011, 0.489409, 0, 0, 0, 0.489409, 0, 0, 0, 0.489409, 2.88693, 0.553381, 2.41837, 0.489409, 0, 0, 0, 0.489409, 0, 0, 0, 0.489409, 2.95817, 0.173797, 2.34618, 0.489409, 0, 0, 0, 0.489409, 0, 0, 0, 0.489409, 2.99173, 0.177972, 2.28748, 0.489409, 0, 0, 0, 0.489409, 0, 0, 0, 0.489409, 2.98307, 0.0802441, 2.32258, 0.489409, 0, 0, 0, 0.489409, 0, 0, 0, 0.489409, 3.01266, -0.102374, 2.18658, 0.489409, 0, 0, 0, 0.489409, 0, 0, 0, 0.489409, 3.0467, 0.0300166, 2.21034, 0.489409, 0, 0, 0, 0.489409, 0, 0, 0, 0.489409, 3.02203, 0.379959, 2.27811, 0.489409, 0, 0, 0, 0.489409, 0, 0, 0, 0.489409, 2.99719, 0.30295, 2.33067, 0.489409, 0, 0, 0, 0.489409, 0, 0, 0, 0.489409, 3.04258, 0.277013, 2.25204, 0.489409, 0, 0, 0, 0.489409, 0, 0, 0, 0.489409, 3.16251, -0.112765, 1.73321, 0.489409, 0, 0, 0, 0.489409, 0, 0, 0, 0.489409, 3.1775, 0.0295337, 1.73573, 0.489409, 0, 0, 0, 0.489409, 0, 0, 0, 0.489409, 2.96776, -0.282462, 2.13955, 0.489409, 0, 0, 0, 0.489409, 0, 0, 0, 0.489409, 3.05241, -0.0251056, 2.14315, 0.489409, 0, 0, 0, 0.489409, 0, 0, 0, 0.489409, 3.06533, 1.46997, 1.06138, 0.489409, 0, 0, 0, 0.489409, 0, 0, 0, 0.489409, 3.12509, 1.36661, 1.04168, 0.489409, 0, 0, 0, 0.489409, 0, 0, 0, 0.489409, 3.08264, 1.45908, 1.07905, 0.489409, 0, 0, 0, 0.489409, 0, 0, 0, 0.489409, 3.10859, 1.44711, 1.17861, 0.489409, 0, 0, 0, 0.489409, 0, 0, 0, 0.489409, 3.043, 1.54752, 1.17202, 0.489409, 0, 0, 0, 0.489409, 0, 0, 0, 0.489409, 1.70316, 0.565075, 3.25374, 0.489409, 0, 0, 0, 0.489409, 0, 0, 0, 0.489409, 1.54455, 0.709989, 3.24372 )
color_array = PoolColorArray( 0, 0.875, 0.875, 1, 0, 0.875, 0.875, 1, 0, 0.875, 0.875, 1, 0, 0.875, 0.875, 1, 0, 0.875, 0.875, 1, 0, 0.875, 0.875, 1, 0, 0.875, 0.875, 1, 0, 0.875, 0.875, 1, 0, 0.875, 0.875, 1, 0, 0.875, 0.875, 1, 0, 0.875, 0.875, 1, 0, 0.875, 0.875, 1, 0, 0.875, 0.875, 1, 0, 0.875, 0.875, 1, 0, 0.875, 0.875, 1, 0, 0.875, 0.875, 1, 0, 0.875, 0.875, 1, 0, 0.875, 0.875, 1, 0, 0.875, 0.875, 1, 0, 0.875, 0.875, 1, 0, 0.875, 0.875, 1, 0, 0.875, 0.875, 1, 0, 0.875, 0.875, 1, 0, 0.875, 0.875, 1, 0, 0.875, 0.875, 1, 0, 0.875, 0.875, 1, 0, 0.875, 0.875, 1, 0, 0.875, 0.875, 1, 0, 0.875, 0.875, 1, 0, 0.875, 0.875, 1, 0, 0.875, 0.875, 1, 0, 0.875, 0.875, 1, 0, 0.875, 0.875, 1, 0, 0.875, 0.875, 1, 0, 0.875, 0.875, 1, 0, 0.875, 0.875, 1, 0, 0.875, 0.875, 1, 0, 0.875, 0.875, 1, 0, 0.875, 0.875, 1, 0, 0.875, 0.875, 1, 0, 0.875, 0.875, 1, 0, 0.875, 0.875, 1, 0, 0.875, 0.875, 1, 0, 0.875, 0.875, 1, 0, 0.875, 0.875, 1, 0, 0.875, 0.875, 1, 0, 0.875, 0.875, 1, 0, 0.875, 0.875, 1, 0, 0.875, 0.875, 1, 0, 0.875, 0.875, 1, 0, 0.875, 0.875, 1, 0, 0.875, 0.875, 1, 0, 0.875, 0.875, 1, 0, 0.875, 0.875, 1, 0, 0.875, 0.875, 1, 0, 0.875, 0.875, 1, 0, 0.875, 0.875, 1, 0, 0.875, 0.875, 1, 0, 0.875, 0.875, 1, 0, 0.875, 0.875, 1, 0, 0.875, 0.875, 1, 0, 0.875, 0.875, 1, 0, 0.875, 0.875, 1, 0, 0.875, 0.875, 1, 0, 0.875, 0.875, 1, 0, 0.875, 0.875, 1, 0, 0.875, 0.875, 1, 0, 0.875, 0.875, 1, 0, 0.875, 0.875, 1, 0, 0.875, 0.875, 1, 0, 0.875, 0.875, 1, 0, 0.875, 0.875, 1, 0, 0.875, 0.875, 1, 0, 0.875, 0.875, 1, 0, 0.875, 0.875, 1, 0, 0.875, 0.875, 1, 0, 0.875, 0.875, 1, 0, 0.875, 0.875, 1, 0, 0.875, 0.875, 1, 0, 0.875, 0.875, 1, 0, 0.875, 0.875, 1, 0, 0.875, 0.875, 1, 0, 0.875, 0.875, 1, 0, 0.875, 0.875, 1, 0, 0.875, 0.875, 1, 0, 0.875, 0.875, 1, 0, 0.875, 0.875, 1, 0, 0.875, 0.875, 1, 0, 0.875, 0.875, 1, 0, 0.875, 0.875, 1, 0, 0.875, 0.875, 1, 0, 0.875, 0.875, 1, 0, 0.875, 0.875, 1, 0, 0.875, 0.875, 1, 0, 0.875, 0.875, 1, 0, 0.875, 0.875, 1, 0, 0.875, 0.875, 1, 0, 0.875, 0.875, 1, 0, 0.875, 0.875, 1, 0, 0.875, 0.875, 1, 0, 0.875, 0.875, 1, 0, 0.875, 0.875, 1, 0, 0.875, 0.875, 1, 0, 0.875, 0.875, 1, 0, 0.875, 0.875, 1, 0, 0.875, 0.875, 1, 0, 0.875, 0.875, 1, 0, 0.875, 0.875, 1, 0, 0.875, 0.875, 1, 0, 0.875, 0.875, 1, 0, 0.875, 0.875, 1, 0, 0.875, 0.875, 1, 0, 0.875, 0.875, 1, 0, 0.875, 0.875, 1, 0, 0.875, 0.875, 1, 0, 0.875, 0.875, 1, 0, 0.875, 0.875, 1, 0, 0.875, 0.875, 1, 0, 0.875, 0.875, 1, 0, 0.875, 0.875, 1, 0, 0.875, 0.875, 1, 0, 0.875, 0.875, 1, 0, 0.875, 0.875, 1, 0, 0.875, 0.875, 1, 0, 0.875, 0.875, 1, 0, 0.875, 0.875, 1, 0, 0.875, 0.875, 1, 0, 0.875, 0.875, 1, 0, 0.875, 0.875, 1, 0, 0.875, 0.875, 1, 0, 0.875, 0.875, 1, 0, 0.875, 0.875, 1, 0, 0.875, 0.875, 1, 0, 0.875, 0.875, 1, 0, 0.875, 0.875, 1, 0, 0.875, 0.875, 1, 0, 0.875, 0.875, 1, 0, 0.875, 0.875, 1, 0, 0.875, 0.875, 1, 0, 0.875, 0.875, 1, 0, 0.875, 0.875, 1, 0, 0.875, 0.875, 1, 0, 0.875, 0.875, 1, 0, 0.875, 0.875, 1, 0, 0.875, 0.875, 1, 0, 0.875, 0.875, 1, 0, 0.875, 0.875, 1, 0, 0.875, 0.875, 1, 0, 0.875, 0.875, 1, 0, 0.875, 0.875, 1, 0, 0.875, 0.875, 1, 0, 0.875, 0.875, 1, 0, 0.875, 0.875, 1, 0, 0.875, 0.875, 1, 0, 0.875, 0.875, 1, 0, 0.875, 0.875, 1, 0, 0.875, 0.875, 1, 0, 0.875, 0.875, 1, 0, 0.875, 0.875, 1, 0, 0.875, 0.875, 1, 0, 0.875, 0.875, 1, 0, 0.875, 0.875, 1, 0, 0.875, 0.875, 1, 0, 0.875, 0.875, 1, 0, 0.875, 0.875, 1, 0, 0.875, 0.875, 1, 0, 0.875, 0.875, 1, 0, 0.875, 0.875, 1, 0, 0.875, 0.875, 1, 0, 0.875, 0.875, 1, 0, 0.875, 0.875, 1, 0, 0.875, 0.875, 1, 0, 0.875, 0.875, 1, 0, 0.875, 0.875, 1, 0, 0.875, 0.875, 1, 0, 0.875, 0.875, 1, 0, 0.875, 0.875, 1, 0, 0.875, 0.875, 1, 0, 0.875, 0.875, 1, 0, 0.875, 0.875, 1, 0, 0.875, 0.875, 1, 0, 0.875, 0.875, 1, 0, 0.875, 0.875, 1, 0, 0.875, 0.875, 1, 0, 0.875, 0.875, 1, 0, 0.875, 0.875, 1, 0, 0.875, 0.875, 1, 0, 0.875, 0.875, 1, 0, 0.875, 0.875, 1, 0, 0.875, 0.875, 1, 0, 0.875, 0.875, 1, 0, 0.875, 0.875, 1, 0, 0.875, 0.875, 1, 0, 0.875, 0.875, 1, 0, 0.875, 0.875, 1, 0, 0.875, 0.875, 1, 0, 0.875, 0.875, 1, 0, 0.875, 0.875, 1, 0, 0.875, 0.875, 1, 0, 0.875, 0.875, 1, 0, 0.875, 0.875, 1, 0, 0.875, 0.875, 1, 0, 0.875, 0.875, 1, 0, 0.875, 0.875, 1, 0, 0.875, 0.875, 1, 0, 0.875, 0.875, 1, 0, 0.875, 0.875, 1, 0, 0.875, 0.875, 1, 0, 0.875, 0.875, 1, 0, 0.875, 0.875, 1, 0, 0.875, 0.875, 1, 0, 0.875, 0.875, 1, 0, 0.875, 0.875, 1, 0, 0.875, 0.875, 1, 0, 0.875, 0.875, 1, 0, 0.875, 0.875, 1, 0, 0.875, 0.875, 1, 0, 0.875, 0.875, 1, 0, 0.875, 0.875, 1, 0, 0.875, 0.875, 1, 0, 0.875, 0.875, 1, 0, 0.875, 0.875, 1, 0, 0.875, 0.875, 1, 0, 0.875, 0.875, 1, 0, 0.875, 0.875, 1, 0, 0.875, 0.875, 1, 0, 0.875, 0.875, 1, 0, 0.875, 0.875, 1, 0, 0.875, 0.875, 1, 0, 0.875, 0.875, 1, 0, 0.875, 0.875, 1, 0, 0.875, 0.875, 1, 0, 0.875, 0.875, 1, 0, 0.875, 0.875, 1, 0, 0.875, 0.875, 1, 0, 0.875, 0.875, 1, 0, 0.875, 0.875, 1, 0, 0.875, 0.875, 1, 0, 0.875, 0.875, 1, 0, 0.875, 0.875, 1, 0, 0.875, 0.875, 1, 0, 0.875, 0.875, 1, 0, 0.875, 0.875, 1, 0, 0.875, 0.875, 1, 0, 0.875, 0.875, 1, 0, 0.875, 0.875, 1, 0, 0.875, 0.875, 1, 0, 0.875, 0.875, 1, 0, 0.875, 0.875, 1, 0, 0.875, 0.875, 1, 0, 0.875, 0.875, 1, 0, 0.875, 0.875, 1, 0, 0.875, 0.875, 1, 0, 0.875, 0.875, 1, 0, 0.875, 0.875, 1, 0, 0.875, 0.875, 1, 0, 0.875, 0.875, 1, 0, 0.875, 0.875, 1, 0, 0.875, 0.875, 1, 0, 0.875, 0.875, 1, 0, 0.875, 0.875, 1, 0, 0.875, 0.875, 1, 0, 0.875, 0.875, 1, 0, 0.875, 0.875, 1, 0, 0.875, 0.875, 1, 0, 0.875, 0.875, 1, 0, 0.875, 0.875, 1, 0, 0.875, 0.875, 1, 0, 0.875, 0.875, 1, 0, 0.875, 0.875, 1, 0, 0.875, 0.875, 1, 0, 0.875, 0.875, 1, 0, 0.875, 0.875, 1, 0, 0.875, 0.875, 1, 0, 0.875, 0.875, 1, 0, 0.875, 0.875, 1, 0, 0.875, 0.875, 1, 0, 0.875, 0.875, 1, 0, 0.875, 0.875, 1, 0, 0.875, 0.875, 1, 0, 0.875, 0.875, 1, 0, 0.875, 0.875, 1, 0, 0.875, 0.875, 1, 0, 0.875, 0.875, 1, 0, 0.875, 0.875, 1, 0, 0.875, 0.875, 1, 0, 0.875, 0.875, 1, 0, 0.875, 0.875, 1, 0, 0.875, 0.875, 1, 0, 0.875, 0.875, 1, 0, 0.875, 0.875, 1, 0, 0.875, 0.875, 1, 0, 0.875, 0.875, 1, 0, 0.875, 0.875, 1, 0, 0.875, 0.875, 1, 0, 0.875, 0.875, 1, 0, 0.875, 0.875, 1, 0, 0.875, 0.875, 1, 0, 0.875, 0.875, 1, 0, 0.875, 0.875, 1, 0, 0.875, 0.875, 1, 0, 0.875, 0.875, 1, 0, 0.875, 0.875, 1, 0, 0.875, 0.875, 1, 0, 0.875, 0.875, 1, 0, 0.875, 0.875, 1, 0, 0.875, 0.875, 1, 0, 0.875, 0.875, 1, 0, 0.875, 0.875, 1, 0, 0.875, 0.875, 1, 0, 0.875, 0.875, 1, 0, 0.875, 0.875, 1, 0, 0.875, 0.875, 1, 0, 0.875, 0.875, 1, 3.19206e-07, 0.875, 0.875, 1, 0, 0.875, 0.875, 1, 0, 0.875, 0.875, 1, 0, 0.875, 0.875, 1, 0, 0.875, 0.875, 1, 0, 0.875, 0.875, 1, 0, 0.875, 0.875, 1, 0, 0.875, 0.875, 1, 0, 0.875, 0.875, 1, 0, 0.875, 0.875, 1, 0, 0.875, 0.875, 1, 0, 0.875, 0.875, 1, 0, 0.875, 0.875, 1, 0, 0.875, 0.875, 1, 0, 0.875, 0.875, 1, 0, 0.875, 0.875, 1, 0, 0.875, 0.875, 1, 0, 0.875, 0.875, 1, 0, 0.875, 0.875, 1, 0, 0.875, 0.875, 1, 0, 0.875, 0.875, 1, 0, 0.875, 0.875, 1, 0, 0.875, 0.875, 1, 0, 0.875, 0.875, 1, 0, 0.875, 0.875, 1, 0, 0.875, 0.875, 1, 0, 0.875, 0.875, 1, 0, 0.875, 0.875, 1, 0, 0.875, 0.875, 1, 0, 0.875, 0.875, 1, 0, 0.875, 0.875, 1, 0, 0.875, 0.875, 1, 0, 0.875, 0.875, 1, 0, 0.875, 0.875, 1, 0, 0.875, 0.875, 1, 0, 0.875, 0.875, 1, 0, 0.875, 0.875, 1, 0, 0.875, 0.875, 1, 0, 0.875, 0.875, 1, 0, 0.875, 0.875, 1, 0, 0.875, 0.875, 1, 0, 0.875, 0.875, 1, 0, 0.875, 0.875, 1, 0, 0.875, 0.875, 1, 0, 0.875, 0.875, 1, 0, 0.875, 0.875, 1, 0, 0.875, 0.875, 1, 0, 0.875, 0.875, 1, 0, 0.875, 0.875, 1, 0, 0.875, 0.875, 1, 0, 0.875, 0.875, 1, 0, 0.875, 0.875, 1, 0, 0.875, 0.875, 1, 0, 0.875, 0.875, 1, 0, 0.875, 0.875, 1, 0, 0.875, 0.875, 1, 0, 0.875, 0.875, 1, 0, 0.875, 0.875, 1, 0, 0.875, 0.875, 1, 0, 0.875, 0.875, 1, 0, 0.875, 0.875, 1, 0, 0.875, 0.875, 1, 0, 0.875, 0.875, 1, 0, 0.875, 0.875, 1, 0, 0.875, 0.875, 1, 0, 0.875, 0.875, 1, 0, 0.875, 0.875, 1, 0, 0.875, 0.875, 1, 0, 0.875, 0.875, 1, 0, 0.875, 0.875, 1, 0, 0.875, 0.875, 1, 0, 0.875, 0.875, 1, 0, 0.875, 0.875, 1, 0, 0.875, 0.875, 1, 0, 0.875, 0.875, 1, 0, 0.875, 0.875, 1, 0, 0.875, 0.875, 1, 0, 0.875, 0.875, 1, 0, 0.875, 0.875, 1, 0, 0.875, 0.875, 1, 0, 0.875, 0.875, 1, 0, 0.875, 0.875, 1, 0, 0.875, 0.875, 1, 0, 0.875, 0.875, 1, 0, 0.875, 0.875, 1, 0, 0.875, 0.875, 1, 0, 0.875, 0.875, 1, 0, 0.875, 0.875, 1, 0, 0.875, 0.875, 1, 0, 0.875, 0.875, 1, 0, 0.875, 0.875, 1, 0, 0.875, 0.875, 1, 0, 0.875, 0.875, 1, 0, 0.875, 0.875, 1, 0, 0.875, 0.875, 1, 0, 0.875, 0.875, 1, 0, 0.875, 0.875, 1, 0, 0.875, 0.875, 1, 0, 0.875, 0.875, 1, 0, 0.875, 0.875, 1, 0, 0.875, 0.875, 1, 0, 0.875, 0.875, 1, 0, 0.875, 0.875, 1, 0, 0.875, 0.875, 1, 0, 0.875, 0.875, 1, 0, 0.875, 0.875, 1, 0, 0.875, 0.875, 1, 0, 0.875, 0.875, 1, 2.7841e-07, 0.875, 0.875, 1, 2.25002e-07, 0.875, 0.875, 1, 2.46263e-07, 0.875, 0.875, 1, 0, 0.875, 0.875, 1, 0, 0.875, 0.875, 1, 0, 0.875, 0.875, 1, 0, 0.875, 0.875, 1, 0, 0.875, 0.875, 1, 0, 0.875, 0.875, 1, 0, 0.875, 0.875, 1, 0, 0.875, 0.875, 1, 0, 0.875, 0.875, 1, 0, 0.875, 0.875, 1, 0, 0.875, 0.875, 1, 0, 0.875, 0.875, 1, 0, 0.875, 0.875, 1, 0, 0.875, 0.875, 1, 0, 0.875, 0.875, 1, 0, 0.875, 0.875, 1, 0, 0.875, 0.875, 1, 0, 0.875, 0.875, 1, 0, 0.875, 0.875, 1, 0, 0.875, 0.875, 1, 0, 0.875, 0.875, 1, 0, 0.875, 0.875, 1, 0, 0.875, 0.875, 1 )

[node name="wires" type="Spatial"]

[node name="env" type="WorldEnvironment" parent="."]
environment = SubResource( 2 )

[node name="p0001" type="Position3D" parent="."]
transform = Transform( 1, 0, 0, 0, 1, 0, 0, 0, 1, -1, 1, -2.49757 )

[node name="p0002" type="Position3D" parent="."]
transform = Transform( 1, 0, 0, 0, 1, 0, 0, 0, 1, 1, 2, -2.49757 )

[node name="p0003" type="Position3D" parent="."]
transform = Transform( 1, 0, 0, 0, 1, 0, 0, 0, 1, -2.07947, 2, 3.57145 )

[node name="p0004" type="Position3D" parent="."]
transform = Transform( 1, 0, 0, 0, 1, 0, 0, 0, 1, 2.58688, -0.0288494, 1.18757 )

[node name="p0005" type="Position3D" parent="."]
transform = Transform( 1, 0, 0, 0, 1, 0, 0, 0, 1, -1.12074, 0.989558, 1.18757 )

[node name="p0006" type="Position3D" parent="."]
transform = Transform( 1, 0, 0, 0, 1, 0, 0, 0, 1, -3.45392, -0.403344, -1.15973 )

[node name="wire" type="ImmediateGeometry" parent="."]
transform = Transform( 1, 0, 0, 0, 1, 0, 0, 0, 1, -0.0659711, 2.34514, 0.181689 )
material_override = SubResource( 3 )
script = ExtResource( 1 )
roots = 4
max_branches = 1000
process = true
shrink_freq = 14.118
reactivity = 15.0

[node name="leaves" type="MultiMeshInstance" parent="wire"]
visible = false
material_override = SubResource( 6 )
multimesh = SubResource( 5 )

[node name="wire2" type="ImmediateGeometry" parent="."]
transform = Transform( 1, 0, 0, 0, 1, 0, 0, 0, 1, -6.91677, 2.90846, 0.181689 )
material_override = SubResource( 3 )
script = ExtResource( 1 )
roots = 4
max_branches = 1000
process = true
shrink_freq = 14.118
reactivity = 15.0

[node name="leaves" type="MultiMeshInstance" parent="wire2"]
visible = false
material_override = SubResource( 6 )
multimesh = SubResource( 5 )
